<svg width="60" height="60" viewBox="0 0 60 60" fill="none" xmlns="http://www.w3.org/2000/svg">
<rect width="60" height="60" rx="30" fill="#F7F7F7"/>
<path d="M13.1809 40.0471C13.1809 40.6089 13.6624 41.079 14.2357 41.079C14.5452 41.079 14.8433 40.9299 15.0497 40.6777L15.1299 40.586L16.093 41.251L16.0013 41.3541C15.5771 41.8815 14.935 42.1796 14.2357 42.1796C12.9975 42.1796 12 41.2166 12 40.0357C12 38.8548 13.0089 37.9032 14.2357 37.9032C14.935 37.9032 15.5885 38.2127 16.0127 38.7401L16.1045 38.8433L15.1414 39.5083L15.0611 39.4166C14.8548 39.1643 14.5452 39.0153 14.2357 39.0153C13.6739 39.0153 13.1809 39.4854 13.1809 40.0471ZM24.6 38.0178H25.6777V42.0535H24.451L22.8344 39.7949V42.0535H21.7452V38.0178H22.8459L24.5885 40.2994V38.0178H24.6ZM29.6675 38.0178H30.9057L29.5873 42.0535H27.8217L26.5032 38.0178H27.7414L28.6357 40.8841C28.6471 40.9185 28.6815 40.9299 28.7045 40.9299C28.7274 40.9299 28.7732 40.9299 28.7732 40.8841V40.8955L29.6675 38.0178ZM39.6306 42.065H38.4153L37.7159 40.6548C37.693 40.6204 37.6471 40.6089 37.5898 40.6089H37.1083V42.065H36.0306V38.0178H38.0943C38.7936 38.0178 39.3783 38.5338 39.4242 39.2102C39.4586 39.7032 39.2064 40.1618 38.7822 40.4026L39.6306 42.065ZM38.3006 39.3134C38.3006 39.1873 38.1975 39.0955 38.0599 39.0955H37.1083V39.5312H38.0599C38.1975 39.5312 38.3006 39.4395 38.3006 39.3134ZM44.7669 38.0178H48V39.0955H45.8446V39.5312H47.7822V40.5057H45.8446V40.9873H48V42.065H44.7669V38.0178ZM43.8726 40.8382V40.8497C43.8726 41.6981 43.1618 42.2026 42.1529 42.2026C41.4191 42.2026 40.6739 41.9733 40.158 41.5147L40.8115 40.7465C41.2242 41.079 41.6943 41.251 42.1758 41.251C42.4854 41.251 42.6917 41.1478 42.6917 40.9643V40.9529C42.6917 40.7809 42.5312 40.6892 41.9694 40.5516C41.0866 40.3452 40.3758 40.1045 40.3758 39.2446V39.2331C40.3758 38.465 40.972 37.9032 41.9809 37.9032C42.6917 37.9032 43.2306 38.0981 43.6892 38.4535L43.0471 39.2217C42.6344 38.9809 42.3363 38.8662 41.9694 38.8662C41.6943 38.8662 41.5796 38.9809 41.5796 39.1299V39.1414C41.5796 39.3363 41.7401 39.4166 42.3248 39.5427C43.2535 39.7491 43.8726 40.0586 43.8726 40.8382ZM20.9083 40.0471C20.9083 41.228 19.9338 42.1911 18.7185 42.1911C17.5146 42.1911 16.5287 41.228 16.5287 40.0471C16.5287 38.8662 17.5032 37.9032 18.7185 37.9032C19.9223 37.9032 20.9083 38.8662 20.9083 40.0471ZM19.7389 40.0471C19.7389 39.4854 19.2803 39.0268 18.7185 39.0268C18.1567 39.0268 17.6981 39.4854 17.6981 40.0471C17.6981 40.6089 18.1567 41.0675 18.7185 41.0675C19.2803 41.079 19.7389 40.6204 19.7389 40.0471ZM31.7427 38.0178H34.9758V39.0955H32.8204V39.5312H34.758V40.5057H32.8204V40.9873H34.9758V42.065H31.7427V38.0178ZM25.5401 25.521L29.1631 26.7019L25.5401 27.8828V31.7006L23.293 28.6166L19.6701 29.7975L21.9172 26.7134L19.6701 23.6293L23.293 24.8102L25.5401 21.7261V25.521ZM33.5083 26.7019L25.5401 35.3924H32.3503L40.3185 26.7019L32.3618 18H25.5516L33.5083 26.7019Z" fill="#111111"/>
</svg>
