<svg width="60" height="60" viewBox="0 0 60 60" fill="none" xmlns="http://www.w3.org/2000/svg">
<rect width="60" height="60" rx="30" fill="#F7F7F7"/>
<path d="M15.404 16.1195C15.1727 16.1551 14.9504 17.0068 14.5033 17.4505C14.1764 17.7707 13.7683 17.7507 13.5516 18.1466C13.4693 18.2945 13.4959 18.5469 13.4026 18.7893C13.2202 19.2741 12.5775 19.3174 12.5775 19.8456C12.5753 20.4161 13.1135 20.525 13.5793 20.9297C13.943 21.2555 13.9786 21.4801 14.4188 21.638C14.7947 21.7659 15.354 21.3478 15.8577 21.4979C16.2714 21.6214 16.6672 21.7103 16.7606 22.1351C16.8428 22.5265 16.755 23.1335 16.2536 23.0635C16.0845 23.0446 15.3518 22.7978 14.4511 22.8934C13.3647 23.0169 12.1249 23.3715 12.0037 24.5825C11.937 25.2596 12.7743 26.058 13.5827 25.8956C14.1419 25.7855 13.8774 25.1262 14.182 24.806C14.5812 24.3957 16.8428 26.2381 18.9455 26.2381C19.8306 26.2381 20.4889 26.0146 21.1428 25.3297C21.2038 25.2774 21.2784 25.1651 21.3729 25.1584C21.4619 25.1651 21.6175 25.2529 21.6687 25.2907C23.3621 26.6517 24.6419 29.3816 30.8655 29.4138C31.7405 29.4182 32.7379 29.8363 33.5518 30.5791C34.278 31.2507 34.7027 32.2948 35.1152 33.3544C35.7379 34.9446 36.8543 36.4913 38.5466 38.2125C38.639 38.3048 40.0322 39.3878 40.1434 39.469C40.1612 39.4801 40.2635 39.7247 40.228 39.8615C40.1868 40.8934 40.0367 43.8944 42.2738 44.0301C42.821 44.0579 42.6774 43.6732 42.6774 43.4085C42.6764 42.8859 42.5807 42.3666 42.8565 41.8318C43.2334 41.0958 42.0571 40.7566 42.0915 39.1654C42.116 37.979 41.1196 38.1813 40.6137 37.2773C40.3224 36.7536 40.0633 36.4757 40.0822 35.8351C40.1957 32.2303 39.315 29.8619 38.8758 29.2804C38.5334 28.8412 38.2498 28.6666 38.5633 28.4631C40.4303 27.23 40.8539 26.0824 40.8539 26.0824C41.8468 23.7485 42.7398 21.6169 43.9707 20.6785C44.2186 20.4849 44.8547 20.0102 45.245 19.8234C46.3936 19.2818 46.9985 18.9539 47.3321 18.6291C47.8602 18.1143 48.2771 17.0413 47.7712 16.3908C47.1419 15.588 46.0533 16.2251 45.573 16.5098C42.1405 18.5469 41.6345 22.1406 40.4458 24.2044C39.4974 25.8533 37.9551 27.0643 36.5764 27.1632C35.5422 27.2399 34.4281 27.0309 33.3184 26.5439C30.6197 25.3608 29.143 23.833 28.795 23.5629C28.07 23.0035 22.4414 17.4783 17.8814 17.2526C17.8814 17.2526 17.3155 16.1196 17.1731 16.1006C16.8395 16.0583 16.4982 16.7778 16.2536 16.8613C16.0234 16.9379 15.6364 16.0816 15.404 16.1195Z" fill="#111111"/>
</svg>
