<svg width="24" height="24" viewBox="0 0 24 24" fill="none" xmlns="http://www.w3.org/2000/svg">
<path d="M8.00065 12C8.00065 9.79095 9.79095 7.99968 12 7.99968C14.209 7.99968 16.0003 9.79095 16.0003 12C16.0003 14.209 14.209 16.0003 12 16.0003C9.79095 16.0003 8.00065 14.209 8.00065 12ZM5.83813 12C5.83813 15.4032 8.59677 18.1619 12 18.1619C15.4032 18.1619 18.1619 15.4032 18.1619 12C18.1619 8.59677 15.4032 5.83813 12 5.83813C8.59677 5.83813 5.83813 8.59677 5.83813 12ZM16.9658 5.59386C16.9658 6.38869 17.6103 7.03425 18.4061 7.03425C19.201 7.03425 19.8465 6.38869 19.8465 5.59386C19.8465 4.79903 19.2019 4.15444 18.4061 4.15444C17.6103 4.15444 16.9658 4.79903 16.9658 5.59386ZM7.15153 21.7677C5.98158 21.7144 5.34572 21.5195 4.9231 21.3548C4.36284 21.1367 3.96349 20.8769 3.54281 20.4572C3.1231 20.0375 2.86236 19.6381 2.64523 19.0779C2.48045 18.6553 2.28562 18.0194 2.23231 16.8494C2.17415 15.5845 2.16252 15.2045 2.16252 12C2.16252 8.79548 2.17512 8.41648 2.23231 7.15057C2.28562 5.98061 2.48142 5.34572 2.64523 4.92213C2.86333 4.36187 3.1231 3.96252 3.54281 3.54184C3.96252 3.12213 4.36187 2.86139 4.9231 2.64426C5.34572 2.47948 5.98158 2.28465 7.15153 2.23134C8.41648 2.17318 8.79645 2.16155 12 2.16155C15.2045 2.16155 15.5835 2.17415 16.8494 2.23134C18.0194 2.28465 18.6543 2.48045 19.0779 2.64426C19.6381 2.86139 20.0375 3.12213 20.4582 3.54184C20.8779 3.96155 21.1376 4.36187 21.3557 4.92213C21.5205 5.34475 21.7153 5.98061 21.7687 7.15057C21.8268 8.41648 21.8384 8.79548 21.8384 12C21.8384 15.2036 21.8268 15.5835 21.7687 16.8494C21.7153 18.0194 21.5195 18.6553 21.3557 19.0779C21.1376 19.6381 20.8779 20.0375 20.4582 20.4572C20.0385 20.8769 19.6381 21.1367 19.0779 21.3548C18.6553 21.5195 18.0194 21.7144 16.8494 21.7677C15.5845 21.8258 15.2045 21.8375 12 21.8375C8.79645 21.8375 8.41648 21.8258 7.15153 21.7677ZM7.05267 0.0726979C5.77512 0.130856 4.90275 0.333441 4.1399 0.630048C3.35089 0.936349 2.68207 1.34733 2.01422 2.01422C1.34733 2.6811 0.936349 3.34992 0.630048 4.1399C0.333441 4.90275 0.130856 5.77512 0.0726979 7.05267C0.0135703 8.33215 0 8.7412 0 12C0 15.2588 0.0135703 15.6679 0.0726979 16.9473C0.130856 18.2249 0.333441 19.0973 0.630048 19.8601C0.936349 20.6491 1.34637 21.3189 2.01422 21.9858C2.6811 22.6527 3.34992 23.0627 4.1399 23.37C4.90372 23.6666 5.77512 23.8691 7.05267 23.9273C8.33312 23.9855 8.7412 24 12 24C15.2598 24 15.6679 23.9864 16.9473 23.9273C18.2249 23.8691 19.0973 23.6666 19.8601 23.37C20.6491 23.0627 21.3179 22.6527 21.9858 21.9858C22.6527 21.3189 23.0627 20.6491 23.37 19.8601C23.6666 19.0973 23.8701 18.2249 23.9273 16.9473C23.9855 15.6669 23.999 15.2588 23.999 12C23.999 8.7412 23.9855 8.33215 23.9273 7.05267C23.8691 5.77512 23.6666 4.90275 23.37 4.1399C23.0627 3.35089 22.6527 2.68207 21.9858 2.01422C21.3189 1.34733 20.6491 0.936349 19.8611 0.630048C19.0973 0.333441 18.2249 0.129887 16.9483 0.0726979C15.6688 0.0145396 15.2598 0 12.001 0C8.7412 0 8.33312 0.0135703 7.05267 0.0726979Z" fill="#111111"/>
</svg>
